"id";"hour";"person";"gender";"age";"plane";"paper";"distance"
1;"[17,18)";"Roland";"male";30;"Standard80";80;7,8
2;"[17,18)";"Astrid";"female";30;"Concorde120";120;2,7
3;"[17,18)";"Roland";"male";30;"Standard120";120;9,2
4;"[17,18)";"Isabella";"female";48;"Standard120";120;6
5;"[17,18)";"Fabienne";"female";17;"Standard120";120;7,3
6;"[17,18)";"Fabienne";"female";17;"Standard120";120;7,8
7;"[17,18)";"Fabienne";"female";17;"Concorde120";120;3,3
8;"[17,18)";"Fabienne";"female";17;"Tie-Bomber80";80;3,5
9;"[17,18)";"Fabienne";"female";17;"Tie-Bomber80";80;2
10;"[17,18)";"Fabienne";"female";17;"Tie-Bomber80";80;3,3
11;"[17,18)";"Isabella";"female";48;"Tie-Bomber80";80;5
12;"[17,18)";"Fabienne";"female";17;"Tie-Bomber120";120;5,2
13;"[17,18)";"Isabella";"female";48;"Tie-Bomber120";120;3
14;"[17,18)";"Roland";"male";30;"Standard80";80;11
15;"[17,18)";"Thomas";"male";28;"Tie-Bomber80";80;7,2
16;"[17,18)";"Thomas";"male";28;"Concorde80";80;4,8
17;"[17,18)";"Thomas";"male";28;"Standard120";120;9,8
18;"[17,18)";"Julia";"female";26;"Standard80";80;5,1
19;"[17,18)";"Julia";"female";26;"Standard80";80;6
20;"[17,18)";"Clara";"female";19;"Lenny";80;11
21;"[17,18)";"Clara";"female";19;"Lenny";80;9,5
22;"[17,18)";"Clara";"female";19;"Lenny";80;12,3
23;"[17,18)";"Noi";"male";7;"Tie-Bomber120";120;2,5
24;"[17,18)";"Noi";"male";7;"Tie-Bomber120";120;3,5
25;"[17,18)";"Noi";"male";7;"Tie-Bomber120";120;5,3
26;"[17,18)";"Noi";"male";7;"Lenny";80;7
27;"[17,18)";"Noi";"male";7;"Lenny";80;4,9
28;"[17,18)";"Noi";"male";7;"Lenny";80;8
29;"[17,18)";"Luci";"male";11;"Luci";80;5
30;"[17,18)";"Luci";"male";11;"Luci";80;2,9
31;"[17,18)";"Luci";"male";11;"Luci";80;2,5
32;"[17,18)";"Luci";"male";11;"Lenny";80;5
33;"[17,18)";"Luci";"male";11;"Lenny";80;5
34;"[17,18)";"Anni";"female";51;"Lenny";80;6,2
35;"[17,18)";"Anni";"female";51;"Lenny";80;7,2
36;"[17,18)";"Andreas";"male";33;"AMSForceNumberOne";120;4,8
37;"[17,18)";"Frank";"male";26;"Flieger";120;4
38;"[17,18)";"Frank";"male";26;"Flieger";120;3,5
39;"[17,18)";"Frank";"male";26;"Flieger";120;6,3
40;"[17,18)";"Frank";"male";26;"Flieger";120;5
41;"[17,18)";"Frank";"male";26;"Flieger";120;5,3
42;"[17,18)";"Oscar";"male";6;"Lenny";80;2,1
43;"[17,18)";"Oscar";"male";6;"Lenny";80;3,1
44;"[17,18)";"Oscar";"male";6;"Lenny";80;2,9
45;"[17,18)";"Christian";"male";43;"Lenny";80;5
46;"[17,18)";"Christian";"male";43;"Lenny";80;11
47;"[17,18)";"Christian";"male";43;"Lenny";80;7
48;"[17,18)";"RAS";"male";43;"RAS";80;6
49;"[17,18)";"Lucas";"male";25;"Drogemeier";80;8,5
50;"[17,18)";"Lucas";"male";25;"Drogemeier";80;9
51;"[17,18)";"RAS";"male";43;"RAS";80;8,7
52;"[17,18)";"RAS";"male";43;"RAS";80;14
53;"[17,18)";"RAS";"male";43;"RAS";80;4,3
54;"[17,18)";"Robin";"male";27;"ClassroomKing";120;9,5
55;"[17,18)";"Robin";"male";27;"ClassroomKing";120;0,9
56;"[17,18)";"Robin";"male";27;"ClassroomKing";120;9,2
57;"[17,18)";"Robin";"male";27;"ClassroomKing";120;3
58;"[17,18)";"HubertPhilip";"male";29;"Liebcraft";80;7
59;"[17,18)";"HubertPhilip";"male";29;"Liebcraft";80;3,9
60;"[17,18)";"HubertPhilip";"male";29;"Liebcraft";80;6
61;"[17,18)";"VendelaJacob";"female";26;"Vendel";80;7,5
62;"[17,18)";"VendelaJacob";"female";26;"Vendel";80;6,5
63;"[17,18)";"VendelaJacob";"female";26;"Vendel";80;5
64;"[17,18)";"Katharina";"female";22;"Chaos";120;3
65;"[17,18)";"Katharina";"female";22;"Chaos";120;3,5
66;"[17,18)";"Katharina";"female";22;"Chaos";120;4
67;"[17,18)";"Katharina";"female";22;"Chaos";120;4,5
68;"[17,18)";"Katharina";"female";22;"Chaos";120;4,5
69;"[17,18)";"Katharina";"female";22;"Chaos";120;5
70;"[17,18)";"Katharina";"female";22;"Chaos";120;5,5
71;"[17,18)";"Maurus";"male";27;"Vapor";80;9
72;"[17,18)";"Maurus";"male";27;"Vapor";80;9
73;"[17,18)";"Maurus";"male";27;"Vapor";80;9,5
74;"[17,18)";"Maurus";"male";27;"Vapor";80;10
75;"[17,18)";"Maurus";"male";27;"Vapor";80;8
76;"[18,19)";"Sarah";"female";29;"Pinguin";120;4,6
77;"[18,19)";"Sarah";"female";29;"Pinguin";120;5,2
78;"[18,19)";"Sarah";"female";29;"Pinguin";120;5,2
79;"[18,19)";"Sarah";"female";29;"Pinguin";120;4,3
80;"[18,19)";"Ole";"male";31;"MCEagle";120;3,9
81;"[18,19)";"Ole";"male";31;"MCEagle";120;5,2
82;"[18,19)";"Ole";"male";31;"MCEagle";120;5,2
83;"[18,19)";"Ole";"male";31;"MCEagle";120;8
84;"[18,19)";"Ole";"male";31;"MCEagle";120;8,3
85;"[18,19)";"Connie";"female";64;"Ikarus";80;5
86;"[18,19)";"Connie";"female";64;"Ikarus";80;5,6
87;"[18,19)";"Connie";"female";64;"Ikarus";80;6
88;"[18,19)";"Claus";"male";53;"Looping80";80;3
89;"[18,19)";"Claus";"male";53;"Looping80";80;0,5
90;"[18,19)";"Claus";"male";53;"Looping80";80;0
91;"[18,19)";"Kathrin";"female";16;"Boing747";80;5
92;"[18,19)";"Kathrin";"female";16;"Boing748";80;4
93;"[18,19)";"Kathrin";"female";16;"Boing749";80;5
94;"[18,19)";"Kathrin";"female";16;"Boing750";80;5,5
95;"[18,19)";"Kathrin";"female";16;"Boing751";80;5,3
96;"[18,19)";"Oscar";"male";6;"Glider";120;3,5
97;"[18,19)";"Christian";"male";43;"Glider";120;5,5
98;"[18,19)";"Hanna";"female";12;"Glider";120;3,9
99;"[18,19)";"Siad";"male";8;"Flitzebumm";120;1,5
100;"[18,19)";"Siad";"male";8;"Flitzebumm";120;3
101;"[18,19)";"Siad";"male";8;"Flitzebumm";120;2,5
102;"[18,19)";"Siad";"male";8;"Flitzebumm";120;3,3
103;"[18,19)";"Haruto";"male";10;"Haruto";120;11
104;"[18,19)";"Haruto";"male";10;"Haruto";120;9,5
105;"[18,19)";"Haruto";"male";10;"Haruto";120;8
106;"[18,19)";"Marvin";"male";15;"EigenKreation";80;5
107;"[18,19)";"Marvin";"male";15;"EigenKreation";80;5,8
108;"[18,19)";"Marvin";"male";15;"EigenKreation";80;4
109;"[18,19)";"Sebastian";"male";20;"Peter";120;4,5
110;"[18,19)";"Sebastian";"male";20;"Peter";120;7,5
111;"[18,19)";"Sebastian";"male";20;"Peter";120;4,5
112;"[18,19)";"Rento";"male";8;"Rento";120;6,5
113;"[18,19)";"Rento";"male";8;"Rento";120;5,5
114;"[18,19)";"Rento";"male";8;"Rento";120;6
115;"[18,19)";"Haruto";"male";10;"Haruto";120;6,5
116;"[18,19)";"Haruto";"male";10;"Haruto";120;8
117;"[18,19)";"Haruto";"male";10;"Haruto";120;10
118;"[18,19)";"Florian";"male";34;"Cora";120;7
119;"[18,19)";"Florian";"male";34;"Cora";120;14
120;"[18,19)";"Florian";"male";34;"Cora";120;5,2
121;"[18,19)";"Elias";"male";11;"Elias";120;5
122;"[18,19)";"Elias";"male";11;"Elias";120;5,2
123;"[18,19)";"Elias";"male";11;"Elias";120;10
124;"[18,19)";"Kracht";"male";57;"Kaktus";120;14
125;"[18,19)";"Kracht";"male";57;"Kaktus";120;11
126;"[18,19)";"Kracht";"male";57;"Kaktus";120;11
127;"[18,19)";"Max";"male";6;"SchnellerSchatten";80;12,5
128;"[18,19)";"Max";"male";6;"SchnellerSchatten";80;13
129;"[18,19)";"Marlin";"male";6;"FreeStyle";80;7
130;"[18,19)";"Marlin";"male";6;"FreeStyle";80;3
131;"[18,19)";"Marlin";"male";6;"FreeStyle";80;5,5
132;"[18,19)";"Georg";"male";27;"Prometeus";80;10
133;"[18,19)";"Georg";"male";27;"Prometeus";80;8
134;"[18,19)";"Georg";"male";27;"Prometeus";80;5
135;"[18,19)";"Giselle";"female";10;"WeltKatastrophe";120;6,5
136;"[18,19)";"Giselle";"female";10;"WeltKatastrophe";120;3
137;"[18,19)";"Giselle";"female";10;"WeltKatastrophe";120;4
138;"[18,19)";"Giselle";"female";10;"WeltKatastrophe";120;5
139;"[18,19)";"Maximilian";"male";13;"Frieder";120;5
140;"[18,19)";"Maximilian";"male";13;"Frieder";120;5
141;"[18,19)";"Maximilian";"male";13;"Frieder";120;4
142;"[18,19)";"MarieSofie";"female";10;"FliegaFlig";80;3
143;"[18,19)";"MarieSofie";"female";10;"FliegaFlig";80;3,5
144;"[18,19)";"MarieSofie";"female";10;"FliegaFlig";80;6,2
145;"[18,19)";"Cora";"female";33;"Cora";120;9
146;"[18,19)";"Cora";"female";33;"Cora";120;12
147;"[18,19)";"Cora";"female";33;"Cora";120;13
148;"[18,19)";"Aaron";"male";18;"Lerantor";120;12
149;"[18,19)";"Aaron";"male";18;"Lerantor";120;12
150;"[18,19)";"Aaron";"male";18;"Lerantor";120;14
151;"[18,19)";"Heinrich";"male";18;"AirForceOnePointFive";120;14,5
152;"[18,19)";"Heinrich";"male";18;"AirForceOnePointFive";120;13
153;"[18,19)";"Heinrich";"male";18;"AirForceOnePointFive";120;13
154;"[18,19)";"Robin2";"male";7;"Fliewatueuet";120;14,5
155;"[18,19)";"Robin2";"male";7;"Fliewatueuet";120;10
156;"[18,19)";"Robin2";"male";7;"Fliewatueuet";120;7
157;"[18,19)";"Robin2";"male";7;"Fliewatueuet";120;8
158;"[18,19)";"Nele";"female";12;"Pupsi";80;3
159;"[18,19)";"Nele";"female";12;"Pupsi";80;3
160;"[18,19)";"Nele";"female";12;"Pupsi";80;4
161;"[18,19)";"Nele";"female";12;"Pupsi";80;8
162;"[19,20)";"Felina";"female";10;"SeePferpfen";80;4
163;"[19,20)";"Felina";"female";10;"SeePferpfen";80;6,5
164;"[19,20)";"Felina";"female";10;"SeePferpfen";80;3
165;"[19,20)";"Fabian";"male";7;"Zitrone";120;7
166;"[19,20)";"Fabian";"male";7;"Zitrone";120;7
167;"[19,20)";"Fabian";"male";7;"Zitrone";120;3,5
168;"[19,20)";"Heinrich";"male";18;"AirForceOnePointFive";120;17
169;"[19,20)";"Julien";"male";17;"Tributeto9-11";120;11
170;"[19,20)";"Julien";"male";17;"Tributeto9-11";120;12
171;"[19,20)";"Julien";"male";17;"Tributeto9-11";120;13
172;"[19,20)";"Felix";"male";10;"Drei";120;12
173;"[19,20)";"Felix";"male";10;"Drei";120;12
174;"[19,20)";"Felix";"male";10;"Drei";120;11
175;"[19,20)";"Markus";"male";24;"Jet";120;10,3
176;"[19,20)";"Markus";"male";24;"Jet";120;12,5
177;"[19,20)";"Markus";"male";24;"Jet";120;10,5
178;"[19,20)";"Birgit";"female";26;"Corbel";80;4,2
179;"[19,20)";"Birgit";"female";26;"Corbel";80;3,8
180;"[19,20)";"Birgit";"female";26;"Corbel";80;4,8
181;"[19,20)";"Felix";"male";10;"Drei";120;10
182;"[19,20)";"Felix";"male";10;"Drei";120;10,8
183;"[19,20)";"Felix";"male";10;"Drei";120;12,5
184;"[19,20)";"Fabian";"male";7;"Zitrone";120;9
185;"[19,20)";"Fabian";"male";7;"Zitrone";120;7
186;"[19,20)";"Fabian";"male";7;"Zitrone";120;5
187;"[19,20)";"Fabian";"male";7;"Zitrone";120;6
188;"[19,20)";"Fabian";"male";7;"Zitrone";120;1
189;"[19,20)";"Sebastian2";"male";32;"Leonard";120;5,2
190;"[19,20)";"Sebastian2";"male";32;"Leonard";120;5,2
191;"[19,20)";"Sebastian2";"male";32;"Leonard";120;5
192;"[19,20)";"Sebastian2";"male";32;"Leonard";120;5,8
193;"[19,20)";"Sebastian2";"male";32;"Leonard";120;7
194;"[19,20)";"Stefanie";"female";33;"Leonard";120;2,1
195;"[19,20)";"Stefanie";"female";33;"Leonard";120;3,7
196;"[19,20)";"Stefanie";"female";33;"Leonard";120;2,2
197;"[19,20)";"Jens";"male";30;"TheSquare";120;8,8
198;"[19,20)";"Jens";"male";30;"TheSquare";120;11
199;"[19,20)";"Jens";"male";30;"TheSquare";120;14,3
200;"[19,20)";"Mina";"female";23;"Mina";80;1,5
201;"[19,20)";"Mina";"female";23;"Mina";80;2,5
202;"[19,20)";"Mina";"female";23;"Mina";80;3
203;"[19,20)";"Anna";"female";12;"Einhorn";80;7,5
204;"[19,20)";"Anna";"female";12;"Einhorn";80;4,5
205;"[19,20)";"Anna";"female";12;"Einhorn";80;4,5
206;"[19,20)";"Maggie";"female";29;"MH29";80;6,9
207;"[19,20)";"Maggie";"female";29;"MH29";80;9,8
208;"[19,20)";"Maggie";"female";29;"MH29";80;6,8
209;"[19,20)";"Lennart";"male";24;"Pfeil120";120;14,3
210;"[19,20)";"Lennart";"male";24;"Pfeil120";120;14,6
211;"[19,20)";"Lennart";"male";24;"Pfeil120";120;13
212;"[19,20)";"Fabian";"male";7;"Zitrone";120;6
213;"[19,20)";"Fabian";"male";7;"Zitrone";120;7
214;"[19,20)";"Fabian";"male";7;"Zitrone";120;8
215;"[19,20)";"Stefan";"male";42;"BlackBird";120;3,3
216;"[19,20)";"Stefan";"male";42;"BlackBird";120;3,3
217;"[19,20)";"Stefan";"male";42;"BlackBird";120;6,2
218;"[19,20)";"Oscar";"male";6;"SausenderBlitz";80;3
219;"[19,20)";"Oscar";"male";6;"SausenderBlitz";80;3,5
220;"[19,20)";"Oscar";"male";6;"SausenderBlitz";80;4
221;"[19,20)";"Oscar";"male";6;"SausenderBlitz";80;6
222;"[19,20)";"Julien";"male";17;"StarFighter";80;8
223;"[19,20)";"Julien";"male";17;"StarFighter";80;12,5
224;"[19,20)";"Felix";"male";10;"Drei";120;11,5
225;"[19,20)";"Felix";"male";10;"Drei";120;15
226;"[19,20)";"Johanna";"female";7;"Bodine";120;2
227;"[19,20)";"Johanna";"female";7;"Bodine";120;1
228;"[19,20)";"Johanna";"female";7;"Bodine";120;1
229;"[19,20)";"Lukas";"male";9;"Dino";120;2,9
230;"[19,20)";"Lukas";"male";9;"Dino";120;3,5
231;"[19,20)";"Lukas";"male";9;"Dino";120;3,8
232;"[19,20)";"Michaela";"female";45;"MH1";120;2,8
233;"[19,20)";"Michaela";"female";45;"MH1";120;2,8
234;"[19,20)";"Michaela";"female";45;"MH1";120;2,8
235;"[19,20)";"Stefan30";"male";30;"Hexagon";80;6
236;"[19,20)";"Stefan30";"male";30;"Hexagon";80;6,3
237;"[19,20)";"Stefan30";"male";30;"Hexagon";80;8
238;"[19,20)";"Omid";"male";12;"OnetwoThree";120;5
239;"[19,20)";"Omid";"male";12;"OnetwoThree";120;8,3
240;"[19,20)";"Omid";"male";12;"OnetwoThree";120;6
241;"[19,20)";"Holger";"male";39;"Johanna";120;11
242;"[19,20)";"Holger";"male";39;"Johanna";120;14
243;"[19,20)";"Holger";"male";39;"Johanna";120;11
244;"[19,20)";"Baerbel";"female";50;"Baerbel";120;3,3
245;"[19,20)";"Baerbel";"female";50;"Baerbel";120;4,2
246;"[19,20)";"Baerbel";"female";50;"Baerbel";120;6,8
247;"[19,20)";"Tobias";"male";12;"SaubesGleiter";120;7,3
248;"[19,20)";"Tobias";"male";12;"SaubesGleiter";120;6
249;"[19,20)";"Omid";"male";12;"OnetwoThree";120;6,8
250;"[19,20)";"Omid";"male";12;"OnetwoThree";120;6,8
251;"[19,20)";"Omid";"male";12;"OnetwoThree";120;6,8
252;"[19,20)";"Teetje";"female";13;"Funny";80;4,5
253;"[19,20)";"Teetje";"female";13;"Funny";80;3,5
254;"[19,20)";"Teetje";"female";13;"Funny";80;2,5
255;"[19,20)";"Julius";"male";14;"PapierFlieger";120;6,5
256;"[19,20)";"Julius";"male";14;"PapierFlieger";120;4,5
257;"[19,20)";"Julius";"male";14;"PapierFlieger";120;3,5
258;"[19,20)";"Peter";"male";9;"Supp";120;8,8
259;"[19,20)";"Peter";"male";9;"Supp";120;4
260;"[19,20)";"Peter";"male";9;"Supp";120;5
261;"[19,20)";"Peter";"male";9;"Supp";120;3,3
262;"[19,20)";"Peter";"male";9;"Supp";120;6
263;"[19,20)";"Kathleen";"female";23;"Tributeto9-11";120;8,8
264;"[19,20)";"Kathleen";"female";23;"Tributeto9-11";120;3
265;"[19,20)";"Kathleen";"female";23;"Tributeto9-11";120;3,6
266;"[19,20)";"Kathleen";"female";23;"Tributeto9-11";120;4
267;"[19,20)";"Omid";"male";12;"OnetwoThree";120;2
268;"[19,20)";"Omid";"male";12;"OnetwoThree";120;13
269;"[19,20)";"Omid";"male";12;"OnetwoThree";120;8,3
270;"[19,20)";"Omid";"male";12;"OnetwoThree";120;8,4
271;"[19,20)";"Emil";"male";8;"Emil";120;9,7
272;"[19,20)";"Emil";"male";8;"Emil";120;9,5
273;"[19,20)";"Emil";"male";8;"Emil";120;7
274;"[19,20)";"Emil";"male";8;"Emil";120;8,3
275;"[19,20)";"Emil";"male";8;"Emil";120;7,2
276;"[19,20)";"Iuha";"male";10;"Falke";120;11
277;"[19,20)";"Jakob";"male";20;"Normandy";80;10,2
278;"[19,20)";"Jakob";"male";20;"Normandy";80;9,5
279;"[19,20)";"Jakob";"male";20;"Normandy";80;9
280;"[19,20)";"Vjeko";"male";55;"Can";120;13,7
281;"[19,20)";"Vjeko";"male";55;"Can";120;9,7
282;"[19,20)";"Vjeko";"male";55;"Can";120;9
283;"[19,20)";"Mateo";"male";6;"ToboFliege";120;8,1
284;"[19,20)";"Mateo";"male";6;"ToboFliege";120;8,8
285;"[19,20)";"Mateo";"male";6;"ToboFliege";120;6,5
286;"[19,20)";"Samil";"male";4;"Samil";120;2
287;"[19,20)";"Samil";"male";4;"Samil";120;1,5
288;"[19,20)";"Andreas2";"male";45;"Falter";120;8
289;"[19,20)";"Andreas2";"male";45;"Falter";120;9
290;"[19,20)";"Andreas2";"male";45;"Falter";120;11,3
291;"[19,20)";"Mohammed";"male";7;"Mohammed";120;8
292;"[19,20)";"Mohammed";"male";7;"Mohammed";120;5,3
293;"[19,20)";"Mohammed";"male";7;"Mohammed";120;6
294;"[19,20)";"Mohammed";"male";7;"Mohammed";120;7
295;"[19,20)";"Anabel";"female";28;"NoName";120;11
296;"[19,20)";"Anabel";"female";28;"NoName";120;12
297;"[19,20)";"Anabel";"female";28;"NoName";120;14
298;"[19,20)";"Mateo";"male";6;"AirForceNumberOne";120;8,3
299;"[19,20)";"Mateo";"male";6;"AirForceNumberOne";120;9,4
300;"[19,20)";"Mateo";"male";6;"AirForceNumberOne";120;10
301;"[20,21)";"Linus";"male";9;"NoName2";120;6
302;"[20,21)";"Linus";"male";9;"NoName2";120;6
303;"[20,21)";"Linus";"male";9;"NoName2";120;6,8
304;"[20,21)";"Rehan";"male";11;"Todesstern";120;7,5
305;"[20,21)";"Rehan";"male";11;"Todesstern";120;8,1
306;"[20,21)";"Rehan";"male";11;"Todesstern";120;12,1
307;"[20,21)";"Tooba";"female";19;"Flieger1.0";80;7,2
308;"[20,21)";"Tooba";"female";19;"Flieger1.0";80;8,2
309;"[20,21)";"Tooba";"female";19;"Flieger1.0";80;7
310;"[20,21)";"Jens2";"male";26;"Miriam";120;6,8
311;"[20,21)";"Jens2";"male";26;"Miriam";120;5,2
312;"[20,21)";"Jens2";"male";26;"Miriam";120;9
313;"[20,21)";"Jens2";"male";26;"Miriam";120;6,2
314;"[20,21)";"Miriam";"female";22;"Nixkoenner";120;2
315;"[20,21)";"Miriam";"female";22;"Nixkoenner";120;3
316;"[20,21)";"Miriam";"female";22;"Nixkoenner";120;2
317;"[20,21)";"Anja";"female";30;"Terminator";120;1,8
318;"[20,21)";"Anja";"female";30;"Terminator";120;4,2
319;"[20,21)";"Anja";"female";30;"Terminator";120;8,2
320;"[20,21)";"Jonna";"female";30;"Jonna";120;8,1
321;"[20,21)";"Jonna";"female";30;"Jonna";120;8,2
322;"[20,21)";"Jonna";"female";30;"Jonna";120;6,9
323;"[20,21)";"Iram";"female";26;"HOS";80;7
324;"[20,21)";"Iram";"female";26;"HOS";80;6
325;"[20,21)";"Iram";"female";26;"HOS";80;4
326;"[20,21)";"Tuba";"female";21;"IBICF";80;6
327;"[20,21)";"Tuba";"female";21;"IBICF";80;4,8
328;"[20,21)";"Tuba";"female";21;"IBICF";80;8,7
329;"[20,21)";"Louisa";"female";14;"PapierFlieger1.0";80;1
330;"[20,21)";"Louisa";"female";14;"PapierFlieger1.0";80;2
331;"[20,21)";"Louisa";"female";14;"PapierFlieger1.0";80;2
332;"[20,21)";"Katja";"female";37;"XY";80;3
333;"[20,21)";"Katja";"female";37;"XY";80;3,5
334;"[20,21)";"Katja";"female";37;"XY";80;6,2
335;"[20,21)";"Maria";"female";20;"PapierFlieger2.0";80;0,8
336;"[20,21)";"Maria";"female";20;"PapierFlieger2.0";80;1,1
337;"[20,21)";"Maria";"female";20;"PapierFlieger2.0";80;1,2
338;"[20,21)";"Pippi";"female";27;"Popel";120;6,5
339;"[20,21)";"Pippi";"female";27;"Popel";120;7,3
340;"[20,21)";"Pippi";"female";27;"Popel";120;8,3
341;"[21,22)";"Lotta";"female";27;"R2D2";80;1,5
342;"[21,22)";"Lotta";"female";27;"R2D2";80;0,5
343;"[21,22)";"Lotta";"female";27;"R2D2";80;1
344;"[21,22)";"Lenanna";"female";12;"Lenanna";80;5,1
345;"[21,22)";"Lenanna";"female";12;"Lenanna";80;5,2
346;"[21,22)";"Lenanna";"female";12;"Lenanna";80;7,5
347;"[21,22)";"Sina";"female";13;"Sina";80;9,8
348;"[21,22)";"Sina";"female";13;"Sina";80;8
349;"[21,22)";"Sina";"female";13;"Sina";80;7,2
350;"[21,22)";"Robbi";"male";10;"Concorde1";120;7
351;"[21,22)";"Robbi";"male";10;"Concorde1";120;6
352;"[21,22)";"Robbi";"male";10;"Concorde1";120;6
353;"[21,22)";"Jojo";"male";9;"R2D3";120;8,2
354;"[21,22)";"Jojo";"male";9;"R2D3";120;9,3
355;"[21,22)";"Jojo";"male";9;"R2D3";120;9
356;"[21,22)";"Ipr";"male";5;"Jipju";120;2
357;"[21,22)";"Ipr";"male";5;"Jipju";120;2
358;"[21,22)";"Ipr";"male";5;"Jipju";120;2
359;"[21,22)";"Morteza";"male";17;"Morteza";80;5,6
360;"[21,22)";"Morteza";"male";17;"Morteza";80;1
361;"[21,22)";"Morteza";"male";17;"Morteza";80;4
362;"[21,22)";"Almut";"female";59;"Almut";80;1,1
363;"[21,22)";"Almut";"female";59;"Almut";80;1,5
364;"[21,22)";"Almut";"female";59;"Almut";80;1,5
365;"[21,22)";"Britzel";"male";11;"Britzel";120;5,9
366;"[21,22)";"Britzel";"male";11;"Britzel";120;5,5
367;"[21,22)";"Britzel";"male";11;"Britzel";120;5,5
368;"[21,22)";"David";"male";13;"David";80;7,5
369;"[21,22)";"David";"male";13;"David";80;8,5
370;"[21,22)";"David";"male";13;"David";80;8,5
371;"[21,22)";"Eva";"female";62;"Flieger2";80;3,5
372;"[21,22)";"Eva";"female";62;"Flieger2";80;4,5
373;"[21,22)";"Eva";"female";62;"Flieger2";80;5,7
374;"[21,22)";"Eva";"female";62;"Flieger2";80;6,2
375;"[21,22)";"Eva";"female";62;"Flieger2";80;7,2
376;"[21,22)";"Eva";"female";62;"Flieger2";80;8,5
377;"[21,22)";"Janosch";"male";6;"Janoschgleiter";120;5
378;"[21,22)";"Tilman";"male";13;"Superhornet";120;11
379;"[21,22)";"Tilman";"male";13;"Superhornet";120;4
380;"[21,22)";"Tilman";"male";13;"Superhornet";120;3
381;"[21,22)";"Lena";"female";9;"Lena";80;6,1
382;"[21,22)";"Lena";"female";9;"Lena";80;3,9
383;"[21,22)";"Lena";"female";9;"Lena";80;4,1
384;"[21,22)";"Pilot";"male";14;"XL-Bomber";80;8,2
385;"[21,22)";"Pilot";"male";14;"XL-Bomber";80;6,9
386;"[21,22)";"Pilot";"male";14;"XL-Bomber";80;2,5
387;"[21,22)";"Tomatensaft";"male";14;"Rosinenbomber";80;5,2
388;"[21,22)";"Tomatensaft";"male";14;"Rosinenbomber";80;9,2
389;"[21,22)";"Tomatensaft";"male";14;"Rosinenbomber";80;6,6
390;"[21,22)";"Sarah2";"female";12;"Evoli";120;8
391;"[21,22)";"Elodie";"female";12;"etoile filante";120;6,7
392;"[21,22)";"Athos";"male";8;"Boeing 747";120;8
393;"[21,22)";"Lukas2";"male";23;"Gleitimon";120;15,5
394;"[21,22)";"Lukas2";"male";23;"Gleitimon";120;14,3
395;"[21,22)";"Lukas2";"male";23;"Gleitimon";120;10,3
396;"[21,22)";"Harrytarry";"male";23;"Plopp";120;10,4
397;"[21,22)";"Harrytarry";"male";23;"Plopp";120;11
398;"[21,22)";"Harrytarry";"male";23;"Plopp";120;9,4
399;"[21,22)";"Peter2";"male";14;"FliegaFlig1";120;9,6
400;"[21,22)";"Peter2";"male";14;"FliegaFlig1";120;4
401;"[21,22)";"Peter2";"male";14;"FliegaFlig1";120;3
402;"[21,22)";"Pilot2";"male";27;"Lordyak";120;11,6
403;"[21,22)";"Pilot2";"male";27;"Lordyak";120;15
404;"[21,22)";"Pilot2";"male";27;"Lordyak";120;15
405;"[21,22)";"Daniel";"male";26;"Boomerang";120;1,5
406;"[21,22)";"Daniel";"male";26;"Boomerang";120;1,1
407;"[21,22)";"Daniel";"male";26;"Boomerang";120;1
408;"[21,22)";"Pilot2";"male";27;"Lordyak";120;18
409;"[21,22)";"Abraham Lincoln";"male";25;"Rose";120;7,4
410;"[21,22)";"Abraham Lincoln";"male";25;"Rose";120;10,5
411;"[21,22)";"Abraham Lincoln";"male";25;"Rose";120;12
412;"[21,22)";"Greta";"female";24;"Killer Flieger";80;7,2
413;"[21,22)";"Greta";"female";24;"Killer Flieger";80;11
414;"[21,22)";"Greta";"female";24;"Killer Flieger";80;11,4
415;"[21,22)";"Hanna2";"female";21;"Flieger3";120;3,6
416;"[21,22)";"Hanna2";"female";21;"Flieger3";120;3,9
417;"[21,22)";"Hanna2";"female";21;"Flieger3";120;4
418;"[21,22)";"Daniel";"male";26;"Boomerang2";120;5
419;"[21,22)";"Daniel";"male";26;"Boomerang2";120;5,9
420;"[21,22)";"Daniel";"male";26;"Boomerang2";120;6,7
421;"[21,22)";"Sophie";"female";17;"Katzenbaer";80;2,1
422;"[21,22)";"Sophie";"female";17;"Katzenbaer";80;4,6
423;"[21,22)";"Sophie";"female";17;"Katzenbaer";80;5,1
424;"[21,22)";"Elina";"female";17;"Pinke Gefahr";80;3,5
425;"[21,22)";"Elina";"female";17;"Pinke Gefahr";80;3,5
426;"[21,22)";"Elina";"female";17;"Pinke Gefahr";80;2,8
427;"[21,22)";"LauLau";"male";9;"Egal";120;8
428;"[21,22)";"LauLau";"male";9;"Egal";120;8
429;"[21,22)";"LauLau";"male";9;"Egal";120;6,5
430;"[22,23)";"Luis";"female";27;"Loopinglouis";80;0,6
431;"[22,23)";"Luis";"female";27;"Loopinglouis";80;0,2
432;"[22,23)";"Luis";"female";27;"Loopinglouis";80;1,1
433;"[22,23)";"Aro";"male";25;"Speedo";120;6,7
434;"[22,23)";"Aro";"male";25;"Speedo";120;6,8
435;"[22,23)";"Aro";"male";25;"Speedo";120;7,1
436;"[22,23)";"Klaus";"male";50;"Klaus";120;10,8
437;"[22,23)";"Klaus";"male";50;"Klaus";120;9,9
438;"[22,23)";"Klaus";"male";50;"Klaus";120;9,9
439;"[22,23)";"Johanna1";"female";13;"NoName1";80;7
440;"[22,23)";"Johanna1";"female";13;"NoName1";80;6,4
441;"[22,23)";"Johanna1";"female";13;"NoName1";80;6
442;"[22,23)";"LN";"male";8;"Keine Ahnung";120;9,9
443;"[22,23)";"LN";"male";8;"Keine Ahnung";120;8
444;"[22,23)";"LN";"male";8;"Keine Ahnung";120;8,5
445;"[22,23)";"LauLau";"male";9;"Air Berlin";80;5
446;"[22,23)";"LauLau";"male";9;"Air Berlin";80;5,2
447;"[22,23)";"LauLau";"male";9;"Air Berlin";80;4,8
448;"[22,23)";"Andreas";"male";33;"kleiner Flieger";120;8
449;"[22,23)";"Andreas";"male";33;"kleiner Flieger";120;11
450;"[22,23)";"Andreas";"male";33;"kleiner Flieger";120;11
451;"[22,23)";"Andrea";"female";37;"NoName";120;8
452;"[22,23)";"Andrea";"female";37;"NoName";120;5
453;"[22,23)";"Andrea";"female";37;"NoName";120;3,5
454;"[22,23)";"LN";"male";8;"Absturz1";120;8,8
455;"[22,23)";"LN";"male";8;"Absturz1";120;7
456;"[22,23)";"LN";"male";8;"Absturz1";120;8,5
457;"[22,23)";"UMG2";"male";11;"Schwalbe";120;1,8
458;"[22,23)";"UMG2";"male";11;"Schwalbe";120;2,2
459;"[22,23)";"UMG2";"male";11;"Schwalbe";120;3,1
460;"[22,23)";"MB";"male";12;"Deutz";120;2,1
461;"[22,23)";"MB";"male";12;"Deutz";120;2,5
462;"[22,23)";"MB";"male";12;"Deutz";120;5,9
463;"[22,23)";"Horus";"male";11;"Falke1";120;6,5
464;"[22,23)";"Horus";"male";11;"Falke1";120;4,9
465;"[22,23)";"Horus";"male";11;"Falke1";120;5,4
466;"[22,23)";"Edu";"male";9;"Rolce Royce";120;3,7
467;"[22,23)";"Edu";"male";9;"Rolce Royce";120;2,8
468;"[22,23)";"Edu";"male";9;"Rolce Royce";120;6,2
469;"[22,23)";"Johannes";"male";13;"Eisvogel";120;6,1
470;"[22,23)";"Johannes";"male";13;"Eisvogel";120;5,9
471;"[22,23)";"Johannes";"male";13;"Eisvogel";120;5
472;"[22,23)";"LN";"male";8;"Absturz1";120;9,6
473;"[22,23)";"LN";"male";8;"Absturz1";120;5
474;"[22,23)";"LN";"male";8;"Absturz1";120;8,5
475;"[22,23)";"JF";"male";14;"ST";120;9,5
476;"[22,23)";"JF";"male";14;"ST";120;10,6
477;"[22,23)";"JF";"male";14;"ST";120;13,3
478;"[22,23)";"Khatuna";"male";27;"Khatuna";120;11,2
479;"[22,23)";"Khatuna";"male";27;"Khatuna";120;8
480;"[22,23)";"Khatuna";"male";27;"Khatuna";120;10,8
481;"[22,23)";"Dominik";"male";20;"Topfighter";120;13,6
482;"[22,23)";"Dominik";"male";20;"Topfighter";120;11,9
483;"[22,23)";"Dominik";"male";20;"Topfighter";120;7,2
484;"[22,23)";"LN";"male";8;"Absturz1";120;10
485;"[22,23)";"LN";"male";8;"Absturz1";120;9,9
486;"[22,23)";"LN";"male";8;"Absturz1";120;9,6
487;"[22,23)";"Edu";"male";9;"Rolce Royce";120;7,5
488;"[22,23)";"Edu";"male";9;"Rolce Royce";120;8,1
489;"[22,23)";"Edu";"male";9;"Rolce Royce";120;4,3
490;"[22,23)";"AK";"male";31;"SL1";120;4,4
491;"[22,23)";"AK";"male";31;"SL1";120;5
492;"[22,23)";"AK";"male";31;"SL1";120;5,1
493;"[22,23)";"JF";"male";14;"ST";120;8,5
494;"[22,23)";"JF";"male";14;"ST";120;14
495;"[22,23)";"JF";"male";14;"ST";120;16,1
496;"[22,23)";"Karla";"female";46;"Karla";80;7,2
497;"[22,23)";"Karla";"female";46;"Karla";80;4
498;"[22,23)";"Karla";"female";46;"Karla";80;5,2
499;"[22,23)";"Marie";"female";22;"Der Berserker";80;9,2
500;"[22,23)";"Marie";"female";22;"Der Berserker";80;7,4
501;"[22,23)";"Marie";"female";22;"Der Berserker";80;6,7
502;"[22,23)";"Tom";"male";29;"Bob";80;8,8
503;"[22,23)";"Tom";"male";29;"Bob";80;2,7
504;"[22,23)";"Tom";"male";29;"Bob";80;2,6
505;"[22,23)";"LN";"male";8;"Absturz1";120;10,4
506;"[22,23)";"LN";"male";8;"Absturz1";120;10,5
507;"[22,23)";"LN";"male";8;"Absturz1";120;9,5
508;"[22,23)";"Franz";"male";18;"Boing757";80;12,5
509;"[22,23)";"Franz";"male";18;"Boing757";80;4,9
510;"[22,23)";"Franz";"male";18;"Boing757";80;6
511;"[22,23)";"Kevin";"male";14;"Ritzenstuermer";80;9
512;"[22,23)";"Kevin";"male";14;"Ritzenstuermer";80;13,55
513;"[22,23)";"Kevin";"male";14;"Ritzenstuermer";80;3
514;"[22,23)";"Clara1";"female";15;"Rosalie12";80;13,5
515;"[22,23)";"Clara1";"female";15;"Rosalie12";80;6,4
516;"[22,23)";"Clara1";"female";15;"Rosalie12";80;6,15
517;"[22,23)";"Kevin";"male";14;"HSGPH9";120;13,9
518;"[22,23)";"Kevin";"male";14;"HSGPH9";120;9
519;"[22,23)";"Kevin";"male";14;"HSGPH9";120;5
520;"[22,23)";"Maike";"female";25;"Millenium Falcon";80;2,1
521;"[22,23)";"Maike";"female";25;"Millenium Falcon";80;2,3
522;"[22,23)";"Maike";"female";25;"Millenium Falcon";80;5,1
523;"[22,23)";"Lukas3";"male";23;"Der Pinke Adler";80;5,1
524;"[22,23)";"Lukas3";"male";23;"Der Pinke Adler";80;8
525;"[22,23)";"Lukas3";"male";23;"Der Pinke Adler";80;4,9
526;"[22,23)";"Gunner";"male";28;"Armadillo";120;10
527;"[22,23)";"Gunner";"male";28;"Armadillo";120;3,65
528;"[22,23)";"Gunner";"male";28;"Armadillo";120;9,1
529;"[22,23)";"Sissi";"female";56;"Grazia";80;9,5
530;"[22,23)";"Sissi";"female";56;"Grazia";80;9,7
531;"[22,23)";"Sissi";"female";56;"Grazia";80;9,8
532;"[22,23)";"Sissi";"female";56;"Grazia";80;8,9
533;"[22,23)";"Sissi";"female";56;"Grazia";80;9,1
534;"[22,23)";"Sissi";"female";56;"Grazia";80;9,7
535;"[22,23)";"Clara1";"female";15;"Rosalie12";80;7
536;"[22,23)";"Clara1";"female";15;"Rosalie12";80;6,6
537;"[22,23)";"Clara1";"female";15;"Rosalie12";80;6,4
538;"[23,Inf)";"Conny";"female";39;"Kamikaze";120;4,7
539;"[23,Inf)";"Conny";"female";39;"Kamikaze";120;4,5
540;"[23,Inf)";"Conny";"female";39;"Kamikaze";120;5
541;"[23,Inf)";"Helga";"female";48;"Butterfly";80;2,3
542;"[23,Inf)";"Helga";"female";48;"Butterfly";80;2,7
543;"[23,Inf)";"Helga";"female";48;"Butterfly";80;3,5
544;"[23,Inf)";"Didi";"male";49;"UM16";80;5,8
545;"[23,Inf)";"Didi";"male";49;"UM16";80;8
546;"[23,Inf)";"Didi";"male";49;"UM16";80;5,6
547;"[23,Inf)";"Marco";"male";24;"Querschlaeger";120;5
548;"[23,Inf)";"Marco";"male";24;"Querschlaeger";120;5
549;"[23,Inf)";"Marco";"male";24;"Querschlaeger";120;9
550;"[23,Inf)";"Jannis";"male";29;"Fehlversuch";120;5
551;"[23,Inf)";"Jannis";"male";29;"Fehlversuch";120;5
552;"[23,Inf)";"Jannis";"male";29;"Fehlversuch";120;5,5
553;"[23,Inf)";"PAU";"male";23;"Umweltsuender3000";120;10,8
554;"[23,Inf)";"PAU";"male";23;"Umweltsuender3000";120;12
555;"[23,Inf)";"PAU";"male";23;"Umweltsuender3000";120;14,5
556;"[23,Inf)";"Pascal";"male";29;"Geira";120;14
557;"[23,Inf)";"Pascal";"male";29;"Geira";120;14
558;"[23,Inf)";"Pascal";"male";29;"Geira";120;16,5
559;"[23,Inf)";"Claudia";"female";26;"Boeing 707";80;6,8
560;"[23,Inf)";"Claudia";"female";26;"Boeing 707";80;5
561;"[23,Inf)";"Claudia";"female";26;"Boeing 707";80;5,3
562;"[23,Inf)";"Claudia";"female";26;"Boeing 707";80;6
563;"[23,Inf)";"Claudia";"female";26;"Boeing 707";80;4
564;"[23,Inf)";"Torben";"male";25;"Pfeil80";80;6
565;"[23,Inf)";"Torben";"male";25;"Pfeil80";80;7
566;"[23,Inf)";"Torben";"male";25;"Pfeil80";80;7,6
567;"[23,Inf)";"Angela";"female";8;"Flieger2";80;7
568;"[23,Inf)";"Angela";"female";8;"Flieger2";80;6,5
569;"[23,Inf)";"Angela";"female";8;"Flieger2";80;6,3
570;"[23,Inf)";"Simon";"male";18;"Simon Airlines";120;6,3
571;"[23,Inf)";"Simon";"male";18;"Simon Airlines";120;7,2
572;"[23,Inf)";"Simon";"male";18;"Simon Airlines";120;9,8
573;"[23,Inf)";"Mattheo";"male";14;"The Best";80;6,8
574;"[23,Inf)";"Mattheo";"male";14;"The Best";80;13,3
575;"[23,Inf)";"Mattheo";"male";14;"The Best";80;7,2
576;"[23,Inf)";"TOR";"male";25;"Torpedo";80;11,9
577;"[23,Inf)";"TOR";"male";25;"Torpedo";80;3,3
578;"[23,Inf)";"TOR";"male";25;"Torpedo";80;9
579;"[23,Inf)";"Looping";"male";51;"Looping120";120;6
580;"[23,Inf)";"Looping";"male";51;"Looping120";120;8,8
581;"[23,Inf)";"Looping";"male";51;"Looping120";120;6,5
582;"[23,Inf)";"Dodo";"female";27;"Dodo";80;6
583;"[23,Inf)";"Dodo";"female";27;"Dodo";80;7
584;"[23,Inf)";"Dodo";"female";27;"Dodo";80;8,2
585;"[23,Inf)";"Strausz";"male";27;"Strausz1";80;9,1
586;"[23,Inf)";"Strausz";"male";27;"Strausz1";80;9,6
587;"[23,Inf)";"Strausz";"male";27;"Strausz1";80;12,8
588;"[23,Inf)";"JOJO";"male";11;"Der_Stein";120;1,6
589;"[23,Inf)";"JOJO";"male";11;"Der_Stein";120;0,3
590;"[23,Inf)";"JOJO";"male";11;"Der_Stein";120;0,1
591;"[23,Inf)";"Sophia";"female";18;"Drei Meter Weiter";120;6
592;"[23,Inf)";"Sophia";"female";18;"Drei Meter Weiter";120;9
593;"[23,Inf)";"Sophia";"female";18;"Drei Meter Weiter";120;12
594;"[23,Inf)";"Mattheo";"male";14;"The Best2.0";120;13,5
595;"[23,Inf)";"Mattheo";"male";14;"The Best2.0";120;14,4
596;"[23,Inf)";"Mattheo";"male";14;"The Best2.0";120;7,2
597;"[23,Inf)";"Stephan";"male";44;"The Bigger the Better";80;4,9
598;"[23,Inf)";"Stephan";"male";44;"The Bigger the Better";80;3,2
599;"[23,Inf)";"Stephan";"male";44;"The Bigger the Better";80;6,5
600;"[23,Inf)";"Phu Master";"male";25;"Phu Plane";80;13,9
601;"[23,Inf)";"Phu Master";"male";25;"Phu Plane";80;9,8
602;"[23,Inf)";"Phu Master";"male";25;"Phu Plane";80;11,8
603;"[23,Inf)";"Maria1";"female";20;"Flywii";80;10,1
604;"[23,Inf)";"Maria1";"female";20;"Flywii";80;8,5
605;"[23,Inf)";"Maria1";"female";20;"Flywii";80;8,5
606;"[23,Inf)";"Tine";"female";36;"Nici";120;6,6
607;"[23,Inf)";"Tine";"female";36;"Nici";120;5,3
608;"[23,Inf)";"Tine";"female";36;"Nici";120;6,8
609;"[23,Inf)";"Phu Master";"male";25;"Phu Plane";80;13,8
610;"[23,Inf)";"Phu Master";"male";25;"Phu Plane";80;13,8
611;"[23,Inf)";"Phu Master";"male";25;"Phu Plane";80;12,9
612;"[23,Inf)";"Rudi";"male";50;"Airwolf";120;15
613;"[23,Inf)";"Rudi";"male";50;"Airwolf";120;7,5
614;"[23,Inf)";"Rudi";"male";50;"Airwolf";120;7,5
615;"[23,Inf)";"Marius";"male";28;"EvilAlien";120;20,1
